Draft Bargains 2020 (Sleeper) | Max Hübner
…
Next, we need data to compare. Let’s scrape the data from the FantasyPros-website using the package rvest. The Data is stored in a <table> tag so we can us rvest’s function html_table().

fantasypros_url <- "https://www.fantasypros.com/nfl/rankings/half-point-ppr-cheatsheets.php"

fp_html <- read_html(fantasypros_url) %>% 
  html_table(fill = T) %>% 
  .[[1]] %>% 
  as_tibble() %>% 
  janitor::clean_names()

fp_html

## # A tibble: 510 x 12
##    rank  wsid  overall_team pos   bye   best  worst avg   std_dev adp   vs_adp
##    <chr> <chr> <chr>        <chr> <chr> <chr> <chr> <chr> <chr>   <chr> <chr> 
##  1 &nbsp "&nb~ "&nbsp"      "&nb~ "&nb~ "&nb~ "&nb~ "&nb~ "&nbsp" "&nb~ "&nbs~
##  2 Tier~ ""    ""           ""    ""    ""    ""    ""    ""      ""    ""    
##  3 1     ""    "Christian ~ "RB1" "13"  "1"   "4"   "1.1" "0.3"   "1.0" "0.0" 
##  4 2     ""    "Saquon Bar~ "RB2" "11"  "1"   "5"   "2.1" "0.5"   "2.0" "0.0" 
##  5 3     ""    "Ezekiel El~ "RB3" "10"  "2"   "17"  "3.5" "1.7"   "3.0" "0.0" 
##  6 4     ""    "Alvin Kama~ "RB4" "6"   "3"   "12"  "4.7" "1.3"   "5.0" "+1.0"
##  7 5     ""    "Michael Th~ "WR1" "6"   "3"   "14"  "6.2" "2.6"   "4.0" "-1.0"
##  8 6     ""    "Dalvin Coo~ "RB5" "7"   "2"   "21"  "6.8" "2.5"   "7.0" "+1.0"
##  9 Tier~ ""    ""           ""    ""    ""    ""    ""    ""      ""    ""    
## 10 7     ""    "Derrick He~ "RB6" "7"   "2"   "28"  "8.3" "3.2"   "6.0" "-1.0"
## # ... with 500 more rows, and 1 more variable: notes <lgl>
…
fp_ranks

## # A tibble: 412 x 4
##     rank name                pos   team 
##    <dbl> <chr>               <chr> <chr>
##  1     1 Christian McCaffrey RB    CAR  
##  2     2 Saquon Barkley      RB    NYG  
##  3     3 Ezekiel Elliott     RB    DAL  
##  4     4 Alvin Kamara        RB    NO   
##  5     5 Michael Thomas      WR    NO   
##  6     6 Dalvin Cook         RB    MIN  
##  7     7 Derrick Henry       RB    TEN  
##  8     8 Davante Adams       WR    GB   
##  9     9 Joe Mixon           RB    CIN  
## 10    10 Julio Jones         WR    ATL  
## # ... with 402 more rows
…
adp_tibble

## # A tibble: 255 x 7
##    name                pos   team     fp sleeper  diff category 
##    <chr>               <chr> <chr> <dbl>   <dbl> <dbl> <fct>    
##  1 Christian McCaffrey RB    CAR       1       1     0 Overhyped
##  2 Saquon Barkley      RB    NYG       2       2     0 Overhyped
##  3 Joe Mixon           RB    CIN       9       9     0 Overhyped
##  4 Kenyan Drake        RB    ARI      17      17     0 Overhyped
##  5 Kareem Hunt         RB    CLE      62      62     0 Overhyped
##  6 Matt Breida         RB    MIA      86      86     0 Overhyped
##  7 Larry Fitzgerald    WR    ARI     183     183     0 Overhyped
##  8 Brian Hill          RB    ATL     281     281     0 Overhyped
##  9 Ezekiel Elliott     RB    DAL       3       4     1 Steal    
## 10 Alvin Kamara        RB    NO        4       3    -1 Overhyped
## # ... with 245 more rows
…
adp_compare <- adp_tibble %>% 
  arrange(desc(abs(diff))) %>% 
  filter(fp <= LIMIT | sleeper <= LIMIT)

steals <- adp_compare %>% 
  filter(category == "Steal") %>% 
  select(-category)

overhyped <- adp_compare %>% 
  filter(category == "Overhyped") %>% 
  select(-category)

steals

## # A tibble: 51 x 6
##    name              pos   team     fp sleeper  diff
##    <chr>             <chr> <chr> <dbl>   <dbl> <dbl>
##  1 Tarik Cohen       RB    CHI      88     120    32
##  2 Tyler Higbee      TE    LAR      77     106    29
##  3 Austin Hooper     TE    CLE      99     124    25
##  4 Josh Allen        QB    BUF      70      89    19
##  5 Matthew Stafford  QB    DET      90     109    19
##  6 D.J. Moore        WR    CAR      30      47    17
##  7 Odell Beckham Jr. WR    CLE      31      48    17
##  8 Courtland Sutton  WR    DEN      50      67    17
##  9 Allen Robinson    WR    CHI      24      40    16
## 10 DeVante Parker    WR    MIA      55      71    16
## # ... with 41 more rows

overhyped

## # A tibble: 54 x 6
##    name               pos   team     fp sleeper  diff
##    <chr>              <chr> <chr> <dbl>   <dbl> <dbl>
##  1 Deebo Samuel       WR    SF      123      75   -48
##  2 Mecole Hardman     WR    KC      147     100   -47
##  3 Rob Gronkowski     TE    TB      107      72   -35
##  4 Emmanuel Sanders   WR    NO      127      99   -28
##  5 Marlon Mack        RB    IND      91      69   -22
##  6 Alexander Mattison RB    MIN     113      96   -17
##  7 Aaron Rodgers      QB    GB       98      82   -16
##  8 Sony Michel        RB    NE      109      93   -16
##  9 David Montgomery   RB    CHI      52      37   -15
## 10 Devin Singletary   RB    BUF      57      42   -15
## # ... with 44 more rows
…
