Visualizing the Best Fantasy Football Performances of the 2019 Season | Max Hübner
…
First, we need data. Since I didn’t have fantasy specific data I thought the easiest way to do this is to calculate the fantasy points from the Play-By-Play Data.

You can find this and many more great datasets here.

pbp <- readRDS(url("https://raw.githubusercontent.com/guga31bb/nflfastR-data/master/data/play_by_play_2019.rds"))

pbp <- pbp %>%
  filter(
    season_type == "REG",
    between(week, 1, 16)
  )
pbp

## # A tibble: 43,240 x 333
##    play_id game_id old_game_id home_team away_team season_type  week posteam
##      <dbl> <chr>   <chr>       <chr>     <chr>     <chr>       <int> <chr>  
##  1       1 2019_0~ 2019090804  MIN       ATL       REG             1 <NA>   
##  2      36 2019_0~ 2019090804  MIN       ATL       REG             1 ATL    
##  3      51 2019_0~ 2019090804  MIN       ATL       REG             1 ATL    
##  4      79 2019_0~ 2019090804  MIN       ATL       REG             1 ATL    
##  5     100 2019_0~ 2019090804  MIN       ATL       REG             1 ATL    
##  6     121 2019_0~ 2019090804  MIN       ATL       REG             1 ATL    
##  7     148 2019_0~ 2019090804  MIN       ATL       REG             1 MIN    
##  8     185 2019_0~ 2019090804  MIN       ATL       REG             1 MIN    
##  9     214 2019_0~ 2019090804  MIN       ATL       REG             1 MIN    
## 10     239 2019_0~ 2019090804  MIN       ATL       REG             1 MIN    
## # ... with 43,230 more rows, and 325 more variables: posteam_type <chr>,
## #   defteam <chr>, side_of_field <chr>, yardline_100 <dbl>, game_date <chr>,
## #   quarter_seconds_remaining <dbl>, half_seconds_remaining <dbl>,
## #   game_seconds_remaining <dbl>, game_half <chr>, quarter_end <dbl>,
## #   drive <dbl>, sp <dbl>, qtr <dbl>, down <dbl>, goal_to_go <dbl>, time <chr>,
## #   yrdln <chr>, ydstogo <dbl>, ydsnet <dbl>, desc <chr>, play_type <chr>,
## #   yards_gained <dbl>, shotgun <dbl>, no_huddle <dbl>, qb_dropback <dbl>,
## #   qb_kneel <dbl>, qb_spike <dbl>, qb_scramble <dbl>, pass_length <chr>,
## #   pass_location <chr>, air_yards <dbl>, yards_after_catch <dbl>,
…
teamcols <- filter(teamcolors, league == "nfl") %>%
  left_join(team_abbr, by = "name") %>%
  select(team_code, name, primary, secondary, logo)

teamcols

## # A tibble: 32 x 5
##    team_code name        primary secondary logo                                 
##    <chr>     <chr>       <chr>   <chr>     <chr>                                
##  1 ARI       Arizona Ca~ #97233f #000000   http://content.sportslogos.net/logos~
##  2 ATL       Atlanta Fa~ #a71930 #000000   http://content.sportslogos.net/logos~
##  3 BAL       Baltimore ~ #241773 #000000   http://content.sportslogos.net/logos~
##  4 BUF       Buffalo Bi~ #00338d #c60c30   http://content.sportslogos.net/logos~
##  5 CAR       Carolina P~ #0085ca #000000   http://content.sportslogos.net/logos~
##  6 CHI       Chicago Be~ #0b162a #c83803   http://content.sportslogos.net/logos~
##  7 CIN       Cincinnati~ #000000 #fb4f14   http://content.sportslogos.net/logos~
##  8 CLE       Cleveland ~ #fb4f14 #22150c   http://content.sportslogos.net/logos~
##  9 DAL       Dallas Cow~ #002244 #b0b7bc   http://content.sportslogos.net/logos~
## 10 DEN       Denver Bro~ #002244 #fb4f14   http://content.sportslogos.net/logos~
## # ... with 22 more rows
…
