Scraping Counter Strike Match History | Max Hübner
…
right_data <- lapply(right_html_data, extract_right_side) %>% bind_rows()
left_data <- lapply(left_html_data, extract_left_side) %>% bind_rows()

cs_data <- left_data %>%
  bind_cols(right_data) %>%
  mutate(game_id = (row_number() - 1) %/% 10)

cs_data

## # A tibble: 2,210 x 16
##    map   timestamp wait_time match_duration player_name ping  k     a     d    
##    <chr> <chr>     <chr>     <chr>          <chr>       <chr> <chr> <chr> <chr>
##  1 Comp~ 2020-05-~ 00:12     32:31          Sergio Mar~ 43    17    5     18   
##  2 Comp~ 2020-05-~ 00:12     32:31          Dadix       45    13    4     21   
##  3 Comp~ 2020-05-~ 00:12     32:31          dex6y       30    10    6     19   
##  4 Comp~ 2020-05-~ 00:12     32:31          duk5x       35    12    0     20   
##  5 Comp~ 2020-05-~ 00:12     32:31          <U+2764> St<U+03AD>fa<U+03BD> -~ 48    10    1     18   
##  6 Comp~ 2020-05-~ 00:12     32:31          /SlasH/     57    26    5     12   
##  7 Comp~ 2020-05-~ 00:12     32:31          ShokoN      31    21    4     13   
##  8 Comp~ 2020-05-~ 00:12     32:31          CERNVNN0S   24    16    4     13   
##  9 Comp~ 2020-05-~ 00:12     32:31          add instag~ 17    17    2     14   
## 10 Comp~ 2020-05-~ 00:12     32:31          Awesome     49    14    2     12   
## # ... with 2,200 more rows, and 7 more variables: mvp <dbl>, hsp <dbl>,
## #   score <chr>, team_id <dbl>, score_t1 <chr>, score_t2 <chr>, game_id <dbl>
…
